{
    "name": "Player2",
    "maps": [
        {
            "name": "PlayerAction",
            "id": "ad82686f-d209-4b75-afef-8a51ebe87c5e",
            "actions": [
                {
                    "name": "Move",
                    "type": "Value",
                    "id": "6744c31c-6cb9-4713-9ae0-783b7250f49d",
                    "expectedControlType": "Stick",
                    "processors": "",
                    "interactions": ""
                },
                {
                    "name": "Jump",
                    "type": "Value",
                    "id": "0b6d684a-01e1-46d9-921d-71eb241f5b9f",
                    "expectedControlType": "Button",
                    "processors": "",
                    "interactions": ""
                },
                {
                    "name": "Action",
                    "type": "Value",
                    "id": "24035a92-f99b-46bf-9a6f-c9a6044aa8de",
                    "expectedControlType": "Button",
                    "processors": "",
                    "interactions": ""
                },
                {
                    "name": "Run",
                    "type": "Value",
                    "id": "49d8a60b-9194-4399-91b2-1aff7609f80b",
                    "expectedControlType": "Button",
                    "processors": "",
                    "interactions": ""
                }
            ],
            "bindings": [
                {
                    "name": "",
                    "id": "396b5624-4ea8-4beb-be0f-c3e8260ff083",
                    "path": "<Gamepad>/leftStick",
                    "interactions": "",
                    "processors": "",
                    "groups": "",
                    "action": "Move",
                    "isComposite": false,
                    "isPartOfComposite": false
                },
                {
                    "name": "Arrow [Gamepad]",
                    "id": "284313e0-eeb7-4105-b475-21d5acc8045b",
                    "path": "2DVector",
                    "interactions": "",
                    "processors": "",
                    "groups": "",
                    "action": "Move",
                    "isComposite": true,
                    "isPartOfComposite": false
                },
                {
                    "name": "up",
                    "id": "ba5c64a1-f815-40c4-8083-9459b7312b64",
                    "path": "<Gamepad>/dpad/up",
                    "interactions": "",
                    "processors": "",
                    "groups": "",
                    "action": "Move",
                    "isComposite": false,
                    "isPartOfComposite": true
                },
                {
                    "name": "down",
                    "id": "3de5ec13-1057-4b5b-bac7-364fe7a7b37e",
                    "path": "<Gamepad>/dpad/down",
                    "interactions": "",
                    "processors": "",
                    "groups": "",
                    "action": "Move",
                    "isComposite": false,
                    "isPartOfComposite": true
                },
                {
                    "name": "left",
                    "id": "4916fa37-5178-4437-a279-8a3ca35b17ea",
                    "path": "<Gamepad>/dpad/left",
                    "interactions": "",
                    "processors": "",
                    "groups": "",
                    "action": "Move",
                    "isComposite": false,
                    "isPartOfComposite": true
                },
                {
                    "name": "right",
                    "id": "b734bd5c-3bc8-463f-b64a-6fe008f7af29",
                    "path": "<Gamepad>/dpad/right",
                    "interactions": "",
                    "processors": "",
                    "groups": "",
                    "action": "Move",
                    "isComposite": false,
                    "isPartOfComposite": true
                },
                {
                    "name": "",
                    "id": "b658b8d2-0e2a-42bf-a725-6d23307155a2",
                    "path": "<Gamepad>/buttonSouth",
                    "interactions": "",
                    "processors": "",
                    "groups": "",
                    "action": "Jump",
                    "isComposite": false,
                    "isPartOfComposite": false
                },
                {
                    "name": "",
                    "id": "0ef6f7c1-be70-4ee3-91a2-416e0b98c515",
                    "path": "<Gamepad>/buttonWest",
                    "interactions": "",
                    "processors": "",
                    "groups": "",
                    "action": "Action",
                    "isComposite": false,
                    "isPartOfComposite": false
                },
                {
                    "name": "",
                    "id": "4e840bb0-b878-43ed-a987-f503c93bcf73",
                    "path": "<Gamepad>/leftTrigger",
                    "interactions": "Hold",
                    "processors": "",
                    "groups": "",
                    "action": "Run",
                    "isComposite": false,
                    "isPartOfComposite": false
                }
            ]
        }
    ],
    "controlSchemes": []
}